[
{
    "model": "user.user",
    "pk": 4,
    "fields": {
        "password": "pbkdf2_sha256$150000$ekJ6yxVItR9Q$OWXCgCR2nCI+Zwk4p0sJbOFDskD04jgQRxWt+peSnYE=",
        "last_login": null,
        "is_superuser": false,
        "email": "user1@email.com",
        "is_staff": false,
        "is_active": true,
        "date_joined": "2019-09-19T10:53:59.797Z",
        "groups": [],
        "user_permissions": []
    }
},
{
    "model": "user.user",
    "pk": 5,
    "fields": {
        "password": "pbkdf2_sha256$150000$p2XM6qZT0cKD$4enEpWMhLSgUdCWglVnATZLOq2PM5CTvW0+yhSEKYg4=",
        "last_login": null,
        "is_superuser": false,
        "email": "user2@email.com",
        "is_staff": false,
        "is_active": true,
        "date_joined": "2019-09-19T10:54:06.378Z",
        "groups": [],
        "user_permissions": []
    }
},
{
    "model": "user.user",
    "pk": 6,
    "fields": {
        "password": "pbkdf2_sha256$150000$SiVpvhAgDXjI$FczsEdkLLQkLursPdf5/n3jduWsY9xTxmIMiCl6BVgM=",
        "last_login": null,
        "is_superuser": false,
        "email": "user3@email.com",
        "is_staff": false,
        "is_active": true,
        "date_joined": "2019-09-19T10:54:12.366Z",
        "groups": [],
        "user_permissions": []
    }
},
{
    "model": "user.user",
    "pk": 7,
    "fields": {
        "password": "pbkdf2_sha256$150000$9xdd16MooGC4$VUmJCq5zD3OT1QECmon/GEGDp8BtkCzMbqoqHel5gbc=",
        "last_login": null,
        "is_superuser": false,
        "email": "user4@email.com",
        "is_staff": false,
        "is_active": true,
        "date_joined": "2019-09-19T10:54:40.381Z",
        "groups": [],
        "user_permissions": []
    }
}
]
